…
``` r
vaccine_API <- fromJSON("https://data.cdc.gov/resource/ee48-w5t6.json?$limit=50000") %>% as_tibble

#Verify the number of rows is less than 50000 (that the limit was sufficient to retrieve the complete dataset).

nrow(vaccine_API)
```

    ## [1] 25033

``` r
vaccine_API
```

    ## # A tibble: 25,033 × 10
    ##    vaccine dose             geography_type geography year_season dimension_type dimension coverage_estimate `_95_ci`
    ##    <chr>   <chr>            <chr>          <chr>     <chr>       <chr>          <chr>     <chr>             <chr>   
    ##  1 HPV     >=1 Dose, Femal… HHS Regions/N… United S… 2006        Age            13-17 Ye… 1.0               0.6 to …
    ##  2 HPV     >=1 Dose, Femal… HHS Regions/N… United S… 2007        Age            13-17 Ye… 25.1              22.3 to…
    ##  3 HPV     >=1 Dose, Femal… HHS Regions/N… Region 1  2007        Age            13-17 Ye… 37.6              25.7 to…
    ##  4 HPV     >=1 Dose, Femal… HHS Regions/N… Region 2  2007        Age            13-17 Ye… 38.2              28.1 to…
    ##  5 HPV     >=1 Dose, Femal… HHS Regions/N… Region 3  2007        Age            13-17 Ye… 27.1              19.5 to…
    ##  6 HPV     >=1 Dose, Femal… HHS Regions/N… Region 4  2007        Age            13-17 Ye… 21.0              15.5 to…
    ##  7 HPV     >=1 Dose, Femal… HHS Regions/N… Region 5  2007        Age            13-17 Ye… 20.3              15.2 to…
    ##  8 HPV     >=1 Dose, Femal… HHS Regions/N… Region 6  2007        Age            13-17 Ye… 22.9              15.5 to…
    ##  9 HPV     >=1 Dose, Femal… HHS Regions/N… Region 7  2007        Age            13-17 Ye… 22.9              14.6 to…
    ## 10 HPV     >=1 Dose, Femal… HHS Regions/N… Region 8  2007        Age            13-17 Ye… 20.3              11.6 to…
    ## # ℹ 25,023 more rows
    ## # ℹ 1 more variable: population_sample_size <chr>
…
